{
    "1" : 
    {
        "points" : [
            [-1.45, 1.95],
            [-1.95, 1.45]
        ]
    },
    "2" : 
    {
        "points" : [
            [1.45, -1.95],
            [1.95, -1.45]
        ]
    }
}